; Engine configuration file.
; It's best edited using the editor UI and not directly,
; since the parameters that go here are not all obvious.
;
; Format:
;   [section] ; section goes between []
;   param=value ; assign values to parameters

config_version=4

_global_script_classes=[ {
"base": "Sprite",
"class": "Joystick",
"language": "GDScript",
"path": "res://joystick/joystick.gd"
} ]
_global_script_class_icons={
"Joystick": "res://joystick/joystick.png"
}

[application]

config/name="Joystick"
run/main_scene="res://demo/Demo.tscn"
config/icon="res://joystick/joystick.png"

[display]

window/stretch/mode="viewport"

[input_devices]

pointing/emulate_touch_from_mouse=true

[rendering]

environment/default_environment="res://default_env.tres"
